Beer Project - EDA
…
Question 4: Compute the median alcohol content and international bitterness unit for each state. Plot a bar chart to compare.

Compute Medians

med_chart = beer_data %>%
  group_by(State) %>%
  summarize("Median_ABV" = median(ABV), 
            "Median_IBU" = median(IBU))

med_chart

## # A tibble: 50 x 3
##    State Median_ABV Median_IBU
##    <chr>      <dbl>      <dbl>
##  1 AK        0.057        46  
##  2 AL        0.06         43  
##  3 AR        0.04         39  
##  4 AZ        0.0575       20.5
##  5 CA        0.058        42  
##  6 CO        0.065        40  
##  7 CT        0.061        29  
##  8 DC        0.059        47.5
##  9 DE        0.055        52  
## 10 FL        0.062        55  
## # ... with 40 more rows
…
